RFM Analysis
…
RFM Analysis

Aravind Hebbali

2018-10-16

RFM Analysis

## # A tibble: 995 x 9
##    customer_id       date_most_recent recency_days transaction_cou~ amount
##    <chr>             <date>                  <dbl>            <dbl>  <dbl>
##  1 Abbey O'Reilly D~ 2006-06-09                205                6    472
##  2 Add Senger        2006-08-13                140                3    340
##  3 Aden Lesch Sr.    2006-06-20                194                4    405
##  4 Admiral Senger    2006-08-21                132                5    448
##  5 Agness O'Keefe    2006-10-02                 90                9    843
##  6 Aileen Barton     2006-10-08                 84                9    763
##  7 Ailene Hermann    2006-03-25                281                8    699
##  8 Aiyanna Bruen PhD 2006-04-29                246                4    157
##  9 Ala Schmidt DDS   2006-01-16                349                3    363
## 10 Alannah Borer     2005-04-21                619                4    196
## # ... with 985 more rows, and 4 more variables: recency_score <int>,
## #   frequency_score <int>, monetary_score <int>, rfm_score <dbl>
…
Segmentation

## # A tibble: 995 x 10
##    customer_id   segment    rfm_score transaction_cou~ recency_days amount
##    <chr>         <chr>          <dbl>            <dbl>        <dbl>  <dbl>
##  1 Abbey O'Reil~ Loyal Cus~       343                6          205    472
##  2 Add Senger    Potential~       412                3          140    340
##  3 Aden Lesch S~ Need Atte~       323                4          194    405
##  4 Admiral Seng~ Potential~       433                5          132    448
##  5 Agness O'Kee~ Loyal Cus~       555                9           90    843
##  6 Aileen Barton Loyal Cus~       555                9           84    763
##  7 Ailene Herma~ Loyal Cus~       355                8          281    699
##  8 Aiyanna Brue~ About To ~       321                4          246    157
##  9 Ala Schmidt ~ Lost             212                3          349    363
## 10 Alannah Borer Lost             121                4          619    196
## # ... with 985 more rows, and 4 more variables: date_most_recent <date>,
## #   recency_score <int>, frequency_score <int>, monetary_score <int>
…
